In-class Exercise 5a: Global and Local Measures of Spatial Autocorrelation using sfdep methods – ISSS626
…
lisa <- wm_q %>% 
  mutate(local_moran = local_moran(
    GDPPC, nb, wt, nsim = 99),
         .before = 1) %>%
  unnest(local_moran)

lisa

Simple feature collection with 88 features and 20 fields
Geometry type: POLYGON
Dimension:     XY
Bounding box:  xmin: 108.7831 ymin: 24.6342 xmax: 114.2544 ymax: 30.12812
Geodetic CRS:  WGS 84
# A tibble: 88 × 21
         ii        eii     var_ii    z_ii    p_ii p_ii_sim p_folded_sim skewness
      <dbl>      <dbl>      <dbl>   <dbl>   <dbl>    <dbl>        <dbl>    <dbl>
 1 -0.00147  0.00177   0.000418   -0.158  0.874       0.82         0.41   -0.812
 2  0.0259   0.00641   0.0105      0.190  0.849       0.96         0.48   -1.09 
 3 -0.0120  -0.0374    0.102       0.0796 0.937       0.76         0.38    0.824
 4  0.00102 -0.0000349 0.00000437  0.506  0.613       0.64         0.32    1.04 
 5  0.0148  -0.00340   0.00165     0.449  0.654       0.5          0.25    1.64 
 6 -0.0388  -0.00339   0.00545    -0.480  0.631       0.82         0.41    0.614
 7  3.37    -0.198     1.41        3.00   0.00266     0.08         0.04    1.46 
 8  1.56    -0.265     0.804       2.04   0.0417      0.08         0.04    0.459
 9  4.42     0.0450    1.79        3.27   0.00108     0.02         0.01    0.746
10 -0.399   -0.0505    0.0859     -1.19   0.234       0.28         0.14   -0.685
# ℹ 78 more rows
# ℹ 13 more variables: kurtosis <dbl>, mean <fct>, median <fct>, pysal <fct>,
#   nb <nb>, wt <list>, NAME_2 <chr>, ID_3 <int>, NAME_3 <chr>,
#   ENGTYPE_3 <chr>, County <chr>, GDPPC <dbl>, geometry <POLYGON [°]>
…
Now, we will compute the local Gi* by using the code chunk below.

HCSA <- wm_idw %>% 
  mutate(local_Gi = local_gstar_perm(
    GDPPC, nb, wts, nsim = 99),
         .before = 1) %>%
  unnest(local_Gi)
HCSA

Simple feature collection with 88 features and 18 fields
Geometry type: POLYGON
Dimension:     XY
Bounding box:  xmin: 108.7831 ymin: 24.6342 xmax: 114.2544 ymax: 30.12812
Geodetic CRS:  WGS 84
# A tibble: 88 × 19
    gi_star cluster     e_gi  var_gi std_dev p_value p_sim p_folded_sim skewness
      <dbl> <fct>      <dbl>   <dbl>   <dbl>   <dbl> <dbl>        <dbl>    <dbl>
 1  0.261   Low     0.00126  1.07e-7  0.283  7.78e-1  0.66         0.33    0.783
 2 -0.276   Low     0.000969 4.76e-8 -0.123  9.02e-1  0.98         0.49    0.713
 3  0.00573 High    0.00156  2.53e-7 -0.0571 9.54e-1  0.78         0.39    0.972
 4  0.528   High    0.00155  2.97e-7  0.321  7.48e-1  0.56         0.28    0.942
 5  0.466   High    0.00137  2.76e-7  0.386  7.00e-1  0.52         0.26    1.32 
 6 -0.445   High    0.000992 7.08e-8 -0.588  5.57e-1  0.68         0.34    0.692
 7  2.99    High    0.000700 4.05e-8  3.13   1.74e-3  0.04         0.02    0.975
 8  2.04    High    0.00152  1.58e-7  1.77   7.59e-2  0.16         0.08    1.26 
 9  4.42    High    0.00130  1.18e-7  4.22   2.39e-5  0.02         0.01    1.20 
10  1.21    Low     0.00175  1.25e-7  1.49   1.36e-1  0.18         0.09    0.408
# ℹ 78 more rows
# ℹ 10 more variables: kurtosis <dbl>, nb <nb>, wts <list>, NAME_2 <chr>,
#   ID_3 <int>, NAME_3 <chr>, ENGTYPE_3 <chr>, County <chr>, GDPPC <dbl>,
#   geometry <POLYGON [°]>
…
